ISO-10303-21;
HEADER;
/* Generated by software containing ST-Developer
 * from STEP Tools, Inc. (www.steptools.com) 
 */
/* OPTION: using custom schema-name function */

FILE_DESCRIPTION(
/* description */ (''),
/* implementation_level */ '2;1');

FILE_NAME(
/* name */ 'Pannel V1',
/* time_stamp */ '2020-11-03T14:38:30+00:00',
/* author */ (''),
/* organization */ (''),
/* preprocessor_version */ 'ST-DEVELOPER v16.5',
/* originating_system */ '',
/* authorisation */ '');

FILE_SCHEMA (('AUTOMOTIVE_DESIGN'));
ENDSEC;

DATA;
#10=SHAPE_REPRESENTATION_RELATIONSHIP('','',#206,#22);
#11=COLOUR_RGB('',0.,0.,1.);
#12=FILL_AREA_STYLE_COLOUR('',#11);
#13=FILL_AREA_STYLE('',(#12));
#14=SURFACE_STYLE_FILL_AREA(#13);
#15=SURFACE_SIDE_STYLE('',(#14));
#16=SURFACE_STYLE_USAGE(.BOTH.,#15);
#17=MECHANICAL_DESIGN_GEOMETRIC_PRESENTATION_REPRESENTATION('',(#19),#205);
#18=PRESENTATION_STYLE_ASSIGNMENT((#16));
#19=STYLED_ITEM('',(#18),#21);
#20=PRESENTATION_LAYER_ASSIGNMENT('Pannels','',(#21));
#21=MANIFOLD_SOLID_BREP('brep_1',#23);
#22=ADVANCED_BREP_SHAPE_REPRESENTATION('brep_rep_0',(#21,#216),#205);
#23=CLOSED_SHELL('',(#24,#25,#26,#27,#28,#29,#30,#31,#32,#33,#34,#35));
#24=ADVANCED_FACE('',(#38,#36),#180,.T.);
#25=ADVANCED_FACE('',(#39),#181,.T.);
#26=ADVANCED_FACE('',(#40,#37),#182,.T.);
#27=ADVANCED_FACE('',(#41),#183,.T.);
#28=ADVANCED_FACE('',(#42),#184,.T.);
#29=ADVANCED_FACE('',(#43),#185,.T.);
#30=ADVANCED_FACE('',(#44),#176,.T.);
#31=ADVANCED_FACE('',(#45),#186,.T.);
#32=ADVANCED_FACE('',(#46),#177,.T.);
#33=ADVANCED_FACE('',(#47),#187,.T.);
#34=ADVANCED_FACE('',(#48),#178,.T.);
#35=ADVANCED_FACE('',(#49),#179,.T.);
#36=FACE_BOUND('',#51,.T.);
#37=FACE_BOUND('',#54,.T.);
#38=FACE_OUTER_BOUND('',#50,.T.);
#39=FACE_OUTER_BOUND('',#52,.T.);
#40=FACE_OUTER_BOUND('',#53,.T.);
#41=FACE_OUTER_BOUND('',#55,.T.);
#42=FACE_OUTER_BOUND('',#56,.T.);
#43=FACE_OUTER_BOUND('',#57,.T.);
#44=FACE_OUTER_BOUND('',#58,.T.);
#45=FACE_OUTER_BOUND('',#59,.T.);
#46=FACE_OUTER_BOUND('',#60,.T.);
#47=FACE_OUTER_BOUND('',#61,.T.);
#48=FACE_OUTER_BOUND('',#62,.T.);
#49=FACE_OUTER_BOUND('',#63,.T.);
#50=EDGE_LOOP('',(#64,#65,#66,#67));
#51=EDGE_LOOP('',(#68,#69));
#52=EDGE_LOOP('',(#70,#71,#72,#73));
#53=EDGE_LOOP('',(#74,#75,#76,#77));
#54=EDGE_LOOP('',(#78,#79));
#55=EDGE_LOOP('',(#80,#81,#82,#83));
#56=EDGE_LOOP('',(#84,#85,#86,#87));
#57=EDGE_LOOP('',(#88,#89,#90,#91));
#58=EDGE_LOOP('',(#92,#93,#94,#95));
#59=EDGE_LOOP('',(#96,#97));
#60=EDGE_LOOP('',(#98,#99,#100,#101));
#61=EDGE_LOOP('',(#102,#103));
#62=EDGE_LOOP('',(#104,#105,#106,#107));
#63=EDGE_LOOP('',(#108,#109,#110,#111));
#64=ORIENTED_EDGE('',*,*,#112,.T.);
#65=ORIENTED_EDGE('',*,*,#113,.T.);
#66=ORIENTED_EDGE('',*,*,#114,.F.);
#67=ORIENTED_EDGE('',*,*,#115,.F.);
#68=ORIENTED_EDGE('',*,*,#126,.T.);
#69=ORIENTED_EDGE('',*,*,#132,.T.);
#70=ORIENTED_EDGE('',*,*,#116,.T.);
#71=ORIENTED_EDGE('',*,*,#117,.T.);
#72=ORIENTED_EDGE('',*,*,#118,.F.);
#73=ORIENTED_EDGE('',*,*,#113,.F.);
#74=ORIENTED_EDGE('',*,*,#119,.T.);
#75=ORIENTED_EDGE('',*,*,#120,.T.);
#76=ORIENTED_EDGE('',*,*,#121,.F.);
#77=ORIENTED_EDGE('',*,*,#117,.F.);
#78=ORIENTED_EDGE('',*,*,#128,.T.);
#79=ORIENTED_EDGE('',*,*,#135,.T.);
#80=ORIENTED_EDGE('',*,*,#122,.T.);
#81=ORIENTED_EDGE('',*,*,#115,.T.);
#82=ORIENTED_EDGE('',*,*,#123,.F.);
#83=ORIENTED_EDGE('',*,*,#120,.F.);
#84=ORIENTED_EDGE('',*,*,#122,.F.);
#85=ORIENTED_EDGE('',*,*,#119,.F.);
#86=ORIENTED_EDGE('',*,*,#116,.F.);
#87=ORIENTED_EDGE('',*,*,#112,.F.);
#88=ORIENTED_EDGE('',*,*,#114,.T.);
#89=ORIENTED_EDGE('',*,*,#118,.T.);
#90=ORIENTED_EDGE('',*,*,#121,.T.);
#91=ORIENTED_EDGE('',*,*,#123,.T.);
#92=ORIENTED_EDGE('',*,*,#124,.F.);
#93=ORIENTED_EDGE('',*,*,#125,.T.);
#94=ORIENTED_EDGE('',*,*,#132,.F.);
#95=ORIENTED_EDGE('',*,*,#130,.F.);
#96=ORIENTED_EDGE('',*,*,#124,.T.);
#97=ORIENTED_EDGE('',*,*,#131,.T.);
#98=ORIENTED_EDGE('',*,*,#128,.F.);
#99=ORIENTED_EDGE('',*,*,#129,.T.);
#100=ORIENTED_EDGE('',*,*,#127,.T.);
#101=ORIENTED_EDGE('',*,*,#133,.F.);
#102=ORIENTED_EDGE('',*,*,#134,.F.);
#103=ORIENTED_EDGE('',*,*,#127,.F.);
#104=ORIENTED_EDGE('',*,*,#130,.T.);
#105=ORIENTED_EDGE('',*,*,#126,.F.);
#106=ORIENTED_EDGE('',*,*,#125,.F.);
#107=ORIENTED_EDGE('',*,*,#131,.F.);
#108=ORIENTED_EDGE('',*,*,#133,.T.);
#109=ORIENTED_EDGE('',*,*,#134,.T.);
#110=ORIENTED_EDGE('',*,*,#129,.F.);
#111=ORIENTED_EDGE('',*,*,#135,.F.);
#112=EDGE_CURVE('',#160,#161,#148,.T.);
#113=EDGE_CURVE('',#161,#162,#149,.T.);
#114=EDGE_CURVE('',#163,#162,#150,.T.);
#115=EDGE_CURVE('',#160,#163,#151,.T.);
#116=EDGE_CURVE('',#161,#164,#152,.T.);
#117=EDGE_CURVE('',#164,#165,#153,.T.);
#118=EDGE_CURVE('',#162,#165,#154,.T.);
#119=EDGE_CURVE('',#164,#166,#155,.T.);
#120=EDGE_CURVE('',#166,#167,#156,.T.);
#121=EDGE_CURVE('',#165,#167,#157,.T.);
#122=EDGE_CURVE('',#166,#160,#158,.T.);
#123=EDGE_CURVE('',#167,#163,#159,.T.);
#124=EDGE_CURVE('',#168,#172,#136,.T.);
#125=EDGE_CURVE('',#168,#169,#137,.T.);
#126=EDGE_CURVE('',#169,#173,#138,.T.);
#127=EDGE_CURVE('',#170,#175,#139,.T.);
#128=EDGE_CURVE('',#171,#174,#140,.T.);
#129=EDGE_CURVE('',#171,#170,#141,.T.);
#130=EDGE_CURVE('',#172,#173,#142,.T.);
#131=EDGE_CURVE('',#172,#168,#143,.T.);
#132=EDGE_CURVE('',#173,#169,#144,.T.);
#133=EDGE_CURVE('',#174,#175,#145,.T.);
#134=EDGE_CURVE('',#175,#170,#146,.T.);
#135=EDGE_CURVE('',#174,#171,#147,.T.);
#136=(
BOUNDED_CURVE()
B_SPLINE_CURVE(2,(#318,#319,#320,#321,#322),.UNSPECIFIED.,.F.,.F.)
B_SPLINE_CURVE_WITH_KNOTS((3,2,3),(0.,1.37444678594553,2.74889357189107),
 .UNSPECIFIED.)
CURVE()
GEOMETRIC_REPRESENTATION_ITEM()
RATIONAL_B_SPLINE_CURVE((1.,0.707106781186548,1.,0.707106781186548,1.))
REPRESENTATION_ITEM('')
);
#137=(
BOUNDED_CURVE()
B_SPLINE_CURVE(1,(#323,#324),.UNSPECIFIED.,.F.,.F.)
B_SPLINE_CURVE_WITH_KNOTS((2,2),(0.,2.),.UNSPECIFIED.)
CURVE()
GEOMETRIC_REPRESENTATION_ITEM()
RATIONAL_B_SPLINE_CURVE((1.,1.))
REPRESENTATION_ITEM('')
);
#138=(
BOUNDED_CURVE()
B_SPLINE_CURVE(2,(#325,#326,#327,#328,#329),.UNSPECIFIED.,.F.,.F.)
B_SPLINE_CURVE_WITH_KNOTS((3,2,3),(-5.49778714378214,-4.1233403578366,-2.74889357189107),
 .UNSPECIFIED.)
CURVE()
GEOMETRIC_REPRESENTATION_ITEM()
RATIONAL_B_SPLINE_CURVE((1.,0.707106781186548,1.,0.707106781186548,1.))
REPRESENTATION_ITEM('')
);
#139=(
BOUNDED_CURVE()
B_SPLINE_CURVE(2,(#330,#331,#332,#333,#334),.UNSPECIFIED.,.F.,.F.)
B_SPLINE_CURVE_WITH_KNOTS((3,2,3),(0.,1.37444678594553,2.74889357189107),
 .UNSPECIFIED.)
CURVE()
GEOMETRIC_REPRESENTATION_ITEM()
RATIONAL_B_SPLINE_CURVE((1.,0.707106781186548,1.,0.707106781186548,1.))
REPRESENTATION_ITEM('')
);
#140=(
BOUNDED_CURVE()
B_SPLINE_CURVE(2,(#335,#336,#337,#338,#339),.UNSPECIFIED.,.F.,.F.)
B_SPLINE_CURVE_WITH_KNOTS((3,2,3),(0.,1.37444678594553,2.74889357189107),
 .UNSPECIFIED.)
CURVE()
GEOMETRIC_REPRESENTATION_ITEM()
RATIONAL_B_SPLINE_CURVE((1.,0.707106781186548,1.,0.707106781186548,1.))
REPRESENTATION_ITEM('')
);
#141=(
BOUNDED_CURVE()
B_SPLINE_CURVE(1,(#340,#341),.UNSPECIFIED.,.F.,.F.)
B_SPLINE_CURVE_WITH_KNOTS((2,2),(3.,5.),.UNSPECIFIED.)
CURVE()
GEOMETRIC_REPRESENTATION_ITEM()
RATIONAL_B_SPLINE_CURVE((1.,1.))
REPRESENTATION_ITEM('')
);
#142=(
BOUNDED_CURVE()
B_SPLINE_CURVE(1,(#342,#343),.UNSPECIFIED.,.F.,.F.)
B_SPLINE_CURVE_WITH_KNOTS((2,2),(0.,1.99999999999999),.UNSPECIFIED.)
CURVE()
GEOMETRIC_REPRESENTATION_ITEM()
RATIONAL_B_SPLINE_CURVE((1.,1.))
REPRESENTATION_ITEM('')
);
#143=(
BOUNDED_CURVE()
B_SPLINE_CURVE(2,(#344,#345,#346,#347,#348),.UNSPECIFIED.,.F.,.F.)
B_SPLINE_CURVE_WITH_KNOTS((3,2,3),(2.74889357189107,4.1233403578366,5.49778714378214),
 .UNSPECIFIED.)
CURVE()
GEOMETRIC_REPRESENTATION_ITEM()
RATIONAL_B_SPLINE_CURVE((1.,0.707106781186548,1.,0.707106781186548,1.))
REPRESENTATION_ITEM('')
);
#144=(
BOUNDED_CURVE()
B_SPLINE_CURVE(2,(#349,#350,#351,#352,#353),.UNSPECIFIED.,.F.,.F.)
B_SPLINE_CURVE_WITH_KNOTS((3,2,3),(-2.74889357189107,-1.37444678594553,
0.),.UNSPECIFIED.)
CURVE()
GEOMETRIC_REPRESENTATION_ITEM()
RATIONAL_B_SPLINE_CURVE((1.,0.707106781186548,1.,0.707106781186548,1.))
REPRESENTATION_ITEM('')
);
#145=(
BOUNDED_CURVE()
B_SPLINE_CURVE(1,(#354,#355),.UNSPECIFIED.,.F.,.F.)
B_SPLINE_CURVE_WITH_KNOTS((2,2),(3.,5.),.UNSPECIFIED.)
CURVE()
GEOMETRIC_REPRESENTATION_ITEM()
RATIONAL_B_SPLINE_CURVE((1.,1.))
REPRESENTATION_ITEM('')
);
#146=(
BOUNDED_CURVE()
B_SPLINE_CURVE(2,(#356,#357,#358,#359,#360),.UNSPECIFIED.,.F.,.F.)
B_SPLINE_CURVE_WITH_KNOTS((3,2,3),(2.74889357189107,4.1233403578366,5.49778714378214),
 .UNSPECIFIED.)
CURVE()
GEOMETRIC_REPRESENTATION_ITEM()
RATIONAL_B_SPLINE_CURVE((1.,0.707106781186548,1.,0.707106781186548,1.))
REPRESENTATION_ITEM('')
);
#147=(
BOUNDED_CURVE()
B_SPLINE_CURVE(2,(#361,#362,#363,#364,#365),.UNSPECIFIED.,.F.,.F.)
B_SPLINE_CURVE_WITH_KNOTS((3,2,3),(2.74889357189107,4.1233403578366,5.49778714378214),
 .UNSPECIFIED.)
CURVE()
GEOMETRIC_REPRESENTATION_ITEM()
RATIONAL_B_SPLINE_CURVE((1.,0.707106781186548,1.,0.707106781186548,1.))
REPRESENTATION_ITEM('')
);
#148=B_SPLINE_CURVE_WITH_KNOTS('',1,(#294,#295),.UNSPECIFIED.,.F.,.F.,(2,
2),(0.,20.),.UNSPECIFIED.);
#149=B_SPLINE_CURVE_WITH_KNOTS('',1,(#296,#297),.UNSPECIFIED.,.F.,.F.,(2,
2),(0.,4.),.UNSPECIFIED.);
#150=B_SPLINE_CURVE_WITH_KNOTS('',1,(#298,#299),.UNSPECIFIED.,.F.,.F.,(2,
2),(0.,20.),.UNSPECIFIED.);
#151=B_SPLINE_CURVE_WITH_KNOTS('',1,(#300,#301),.UNSPECIFIED.,.F.,.F.,(2,
2),(0.,4.),.UNSPECIFIED.);
#152=B_SPLINE_CURVE_WITH_KNOTS('',1,(#302,#303),.UNSPECIFIED.,.F.,.F.,(2,
2),(20.,56.5),.UNSPECIFIED.);
#153=B_SPLINE_CURVE_WITH_KNOTS('',1,(#304,#305),.UNSPECIFIED.,.F.,.F.,(2,
2),(0.,4.),.UNSPECIFIED.);
#154=B_SPLINE_CURVE_WITH_KNOTS('',1,(#306,#307),.UNSPECIFIED.,.F.,.F.,(2,
2),(20.,56.5),.UNSPECIFIED.);
#155=B_SPLINE_CURVE_WITH_KNOTS('',1,(#308,#309),.UNSPECIFIED.,.F.,.F.,(2,
2),(56.5,76.5),.UNSPECIFIED.);
#156=B_SPLINE_CURVE_WITH_KNOTS('',1,(#310,#311),.UNSPECIFIED.,.F.,.F.,(2,
2),(0.,4.),.UNSPECIFIED.);
#157=B_SPLINE_CURVE_WITH_KNOTS('',1,(#312,#313),.UNSPECIFIED.,.F.,.F.,(2,
2),(56.5,76.5),.UNSPECIFIED.);
#158=B_SPLINE_CURVE_WITH_KNOTS('',1,(#314,#315),.UNSPECIFIED.,.F.,.F.,(2,
2),(76.5,113.),.UNSPECIFIED.);
#159=B_SPLINE_CURVE_WITH_KNOTS('',1,(#316,#317),.UNSPECIFIED.,.F.,.F.,(2,
2),(76.5,113.),.UNSPECIFIED.);
#160=VERTEX_POINT('',#278);
#161=VERTEX_POINT('',#279);
#162=VERTEX_POINT('',#280);
#163=VERTEX_POINT('',#281);
#164=VERTEX_POINT('',#282);
#165=VERTEX_POINT('',#283);
#166=VERTEX_POINT('',#284);
#167=VERTEX_POINT('',#285);
#168=VERTEX_POINT('',#286);
#169=VERTEX_POINT('',#287);
#170=VERTEX_POINT('',#288);
#171=VERTEX_POINT('',#289);
#172=VERTEX_POINT('',#290);
#173=VERTEX_POINT('',#291);
#174=VERTEX_POINT('',#292);
#175=VERTEX_POINT('',#293);
#176=(
BOUNDED_SURFACE()
B_SPLINE_SURFACE(1,2,((#236,#237,#238,#239,#240),(#241,#242,#243,#244,#245)),
 .UNSPECIFIED.,.F.,.F.,.F.)
B_SPLINE_SURFACE_WITH_KNOTS((2,2),(3,2,3),(0.,5.),(0.,1.37444678594553,
2.74889357189107),.UNSPECIFIED.)
GEOMETRIC_REPRESENTATION_ITEM()
RATIONAL_B_SPLINE_SURFACE(((1.,0.707106781186548,1.,0.707106781186548,1.),
(1.,0.707106781186548,1.,0.707106781186548,1.)))
REPRESENTATION_ITEM('')
SURFACE()
);
#177=(
BOUNDED_SURFACE()
B_SPLINE_SURFACE(1,2,((#247,#248,#249,#250,#251),(#252,#253,#254,#255,#256)),
 .UNSPECIFIED.,.F.,.F.,.F.)
B_SPLINE_SURFACE_WITH_KNOTS((2,2),(3,2,3),(0.,5.),(0.,1.37444678594553,
2.74889357189107),.UNSPECIFIED.)
GEOMETRIC_REPRESENTATION_ITEM()
RATIONAL_B_SPLINE_SURFACE(((1.,0.707106781186548,1.,0.707106781186548,1.),
(1.,0.707106781186548,1.,0.707106781186548,1.)))
REPRESENTATION_ITEM('')
SURFACE()
);
#178=(
BOUNDED_SURFACE()
B_SPLINE_SURFACE(1,2,((#258,#259,#260,#261,#262),(#263,#264,#265,#266,#267)),
 .UNSPECIFIED.,.F.,.F.,.F.)
B_SPLINE_SURFACE_WITH_KNOTS((2,2),(3,2,3),(0.,5.),(2.74889357189107,4.1233403578366,
5.49778714378214),.UNSPECIFIED.)
GEOMETRIC_REPRESENTATION_ITEM()
RATIONAL_B_SPLINE_SURFACE(((1.,0.707106781186548,1.,0.707106781186548,1.),
(1.,0.707106781186548,1.,0.707106781186548,1.)))
REPRESENTATION_ITEM('')
SURFACE()
);
#179=(
BOUNDED_SURFACE()
B_SPLINE_SURFACE(1,2,((#268,#269,#270,#271,#272),(#273,#274,#275,#276,#277)),
 .UNSPECIFIED.,.F.,.F.,.F.)
B_SPLINE_SURFACE_WITH_KNOTS((2,2),(3,2,3),(0.,5.),(2.74889357189107,4.1233403578366,
5.49778714378214),.UNSPECIFIED.)
GEOMETRIC_REPRESENTATION_ITEM()
RATIONAL_B_SPLINE_SURFACE(((1.,0.707106781186548,1.,0.707106781186548,1.),
(1.,0.707106781186548,1.,0.707106781186548,1.)))
REPRESENTATION_ITEM('')
SURFACE()
);
#180=PLANE('',#208);
#181=PLANE('',#209);
#182=PLANE('',#210);
#183=PLANE('',#211);
#184=PLANE('',#212);
#185=PLANE('',#213);
#186=PLANE('',#214);
#187=PLANE('',#215);
#188=SHAPE_DEFINITION_REPRESENTATION(#189,#206);
#189=PRODUCT_DEFINITION_SHAPE('Document','',#191);
#190=PRODUCT_DEFINITION_CONTEXT('3D Mechanical Parts',#195,'design');
#191=PRODUCT_DEFINITION('A','First version',#192,#190);
#192=PRODUCT_DEFINITION_FORMATION_WITH_SPECIFIED_SOURCE('A',
'First version',#197,.MADE.);
#193=PRODUCT_RELATED_PRODUCT_CATEGORY('tool','tool',(#197));
#194=APPLICATION_PROTOCOL_DEFINITION('Draft International Standard',
'automotive_design',1999,#195);
#195=APPLICATION_CONTEXT(
'data for automotive mechanical design processes');
#196=PRODUCT_CONTEXT('3D Mechanical Parts',#195,'mechanical');
#197=PRODUCT('Document','Document','Rhino converted to STEP',(#196));
#198=(
LENGTH_UNIT()
NAMED_UNIT(*)
SI_UNIT(.MILLI.,.METRE.)
);
#199=(
NAMED_UNIT(*)
PLANE_ANGLE_UNIT()
SI_UNIT($,.RADIAN.)
);
#200=DIMENSIONAL_EXPONENTS(0.,0.,0.,0.,0.,0.,0.);
#201=PLANE_ANGLE_MEASURE_WITH_UNIT(PLANE_ANGLE_MEASURE(0.01745329252),#199);
#202=(
CONVERSION_BASED_UNIT('DEGREES',#201)
NAMED_UNIT(#200)
PLANE_ANGLE_UNIT()
);
#203=(
NAMED_UNIT(*)
SI_UNIT($,.STERADIAN.)
SOLID_ANGLE_UNIT()
);
#204=UNCERTAINTY_MEASURE_WITH_UNIT(LENGTH_MEASURE(0.001),#198,
'DISTANCE_ACCURACY_VALUE',
'Maximum model space distance between geometric entities at asserted c
onnectivities');
#205=(
GEOMETRIC_REPRESENTATION_CONTEXT(3)
GLOBAL_UNCERTAINTY_ASSIGNED_CONTEXT((#204))
GLOBAL_UNIT_ASSIGNED_CONTEXT((#203,#202,#198))
REPRESENTATION_CONTEXT('ID1','3D')
);
#206=SHAPE_REPRESENTATION('Document',(#207,#216),#205);
#207=AXIS2_PLACEMENT_3D('',#229,#217,#218);
#208=AXIS2_PLACEMENT_3D('',#230,#219,$);
#209=AXIS2_PLACEMENT_3D('',#231,#220,$);
#210=AXIS2_PLACEMENT_3D('',#232,#221,$);
#211=AXIS2_PLACEMENT_3D('',#233,#222,$);
#212=AXIS2_PLACEMENT_3D('',#234,#223,$);
#213=AXIS2_PLACEMENT_3D('',#235,#224,$);
#214=AXIS2_PLACEMENT_3D('',#246,#225,$);
#215=AXIS2_PLACEMENT_3D('',#257,#226,$);
#216=AXIS2_PLACEMENT_3D('',#366,#227,#228);
#217=DIRECTION('',(0.,0.,1.));
#218=DIRECTION('',(1.,0.,0.));
#219=DIRECTION('',(-1.,0.,0.));
#220=DIRECTION('',(0.,-1.,0.));
#221=DIRECTION('',(1.,0.,0.));
#222=DIRECTION('',(0.,1.,0.));
#223=DIRECTION('',(0.,0.,-1.));
#224=DIRECTION('',(0.,0.,1.));
#225=DIRECTION('',(-1.,0.,0.));
#226=DIRECTION('',(1.,0.,0.));
#227=DIRECTION('',(0.,0.,1.));
#228=DIRECTION('',(1.,0.,0.));
#229=CARTESIAN_POINT('',(0.,0.,0.));
#230=CARTESIAN_POINT('',(329.5,9.99999996704912,-1.36487046109579E-8));
#231=CARTESIAN_POINT('',(329.5,-10.0000000329509,-1.36487023905119E-8));
#232=CARTESIAN_POINT('',(418.5,-10.0000000329509,-1.36487023905119E-8));
#233=CARTESIAN_POINT('',(418.5,9.99999996704912,-1.36487046109579E-8));
#234=CARTESIAN_POINT('',(329.5,9.99999996704912,-1.36487046109579E-8));
#235=CARTESIAN_POINT('',(329.5,9.99999996704912,3.9999999863513));
#236=CARTESIAN_POINT('',(331.5,-0.618718466489112,1.38128155281307));
#237=CARTESIAN_POINT('',(331.5,-1.23743690002734,1.9999999863513));
#238=CARTESIAN_POINT('',(331.5,-0.618718466489112,2.61871841988953));
#239=CARTESIAN_POINT('',(331.5,-3.29508832382849E-8,3.23743685342776));
#240=CARTESIAN_POINT('',(331.5,0.618718400587346,2.61871841988953));
#241=CARTESIAN_POINT('',(326.5,-0.618718466489112,1.38128155281307));
#242=CARTESIAN_POINT('',(326.5,-1.23743690002734,1.9999999863513));
#243=CARTESIAN_POINT('',(326.5,-0.618718466489112,2.61871841988953));
#244=CARTESIAN_POINT('',(326.5,-3.29508832382849E-8,3.23743685342776));
#245=CARTESIAN_POINT('',(326.5,0.618718400587346,2.61871841988953));
#246=CARTESIAN_POINT('',(331.5,1.54679605089469,1.9999999863513));
#247=CARTESIAN_POINT('',(421.5,-0.618718466489112,1.38128155281307));
#248=CARTESIAN_POINT('',(421.5,-1.23743690002734,1.9999999863513));
#249=CARTESIAN_POINT('',(421.5,-0.618718466489112,2.61871841988953));
#250=CARTESIAN_POINT('',(421.5,-3.29508832382849E-8,3.23743685342776));
#251=CARTESIAN_POINT('',(421.5,0.618718400587346,2.61871841988953));
#252=CARTESIAN_POINT('',(416.5,-0.618718466489112,1.38128155281307));
#253=CARTESIAN_POINT('',(416.5,-1.23743690002734,1.9999999863513));
#254=CARTESIAN_POINT('',(416.5,-0.618718466489112,2.61871841988953));
#255=CARTESIAN_POINT('',(416.5,-3.29508832382849E-8,3.23743685342776));
#256=CARTESIAN_POINT('',(416.5,0.618718400587346,2.61871841988953));
#257=CARTESIAN_POINT('',(416.5,1.54679605089469,1.9999999863513));
#258=CARTESIAN_POINT('',(331.5,0.618718400587346,2.61871841988953));
#259=CARTESIAN_POINT('',(331.5,1.23743683412558,1.9999999863513));
#260=CARTESIAN_POINT('',(331.5,0.618718400587347,1.38128155281307));
#261=CARTESIAN_POINT('',(331.5,-3.29508822962294E-8,0.762563119274839));
#262=CARTESIAN_POINT('',(331.5,-0.618718466489112,1.38128155281307));
#263=CARTESIAN_POINT('',(326.5,0.618718400587346,2.61871841988953));
#264=CARTESIAN_POINT('',(326.5,1.23743683412558,1.9999999863513));
#265=CARTESIAN_POINT('',(326.5,0.618718400587347,1.38128155281307));
#266=CARTESIAN_POINT('',(326.5,-3.29508822962294E-8,0.762563119274839));
#267=CARTESIAN_POINT('',(326.5,-0.618718466489112,1.38128155281307));
#268=CARTESIAN_POINT('',(421.5,0.618718400587346,2.61871841988953));
#269=CARTESIAN_POINT('',(421.5,1.23743683412558,1.9999999863513));
#270=CARTESIAN_POINT('',(421.5,0.618718400587347,1.38128155281307));
#271=CARTESIAN_POINT('',(421.5,-3.29508822962294E-8,0.762563119274839));
#272=CARTESIAN_POINT('',(421.5,-0.618718466489112,1.38128155281307));
#273=CARTESIAN_POINT('',(416.5,0.618718400587346,2.61871841988953));
#274=CARTESIAN_POINT('',(416.5,1.23743683412558,1.9999999863513));
#275=CARTESIAN_POINT('',(416.5,0.618718400587347,1.38128155281307));
#276=CARTESIAN_POINT('',(416.5,-3.29508822962294E-8,0.762563119274839));
#277=CARTESIAN_POINT('',(416.5,-0.618718466489112,1.38128155281307));
#278=CARTESIAN_POINT('',(329.5,9.99999996704912,-1.36487046109579E-8));
#279=CARTESIAN_POINT('',(329.5,-10.0000000329509,-1.36487023905119E-8));
#280=CARTESIAN_POINT('',(329.5,-10.0000000329509,3.9999999863513));
#281=CARTESIAN_POINT('',(329.5,9.99999996704912,3.9999999863513));
#282=CARTESIAN_POINT('',(418.5,-10.0000000329509,-1.36487023905119E-8));
#283=CARTESIAN_POINT('',(418.5,-10.0000000329509,3.9999999863513));
#284=CARTESIAN_POINT('',(418.5,9.99999996704912,-1.36487046109579E-8));
#285=CARTESIAN_POINT('',(418.5,9.99999996704912,3.9999999863513));
#286=CARTESIAN_POINT('',(331.5,-0.618718466489112,1.38128155281307));
#287=CARTESIAN_POINT('',(329.5,-0.618718466489111,1.38128155281307));
#288=CARTESIAN_POINT('',(416.5,-0.618718466489112,1.38128155281307));
#289=CARTESIAN_POINT('',(418.5,-0.618718466489114,1.38128155281307));
#290=CARTESIAN_POINT('',(331.5,0.618718400587346,2.61871841988953));
#291=CARTESIAN_POINT('',(329.5,0.618718400587346,2.61871841988953));
#292=CARTESIAN_POINT('',(418.5,0.618718400587346,2.61871841988953));
#293=CARTESIAN_POINT('',(416.5,0.618718400587346,2.61871841988953));
#294=CARTESIAN_POINT('',(329.5,9.99999996704912,-1.36487046109579E-8));
#295=CARTESIAN_POINT('',(329.5,-10.0000000329509,-1.36487023905119E-8));
#296=CARTESIAN_POINT('',(329.5,-10.0000000329509,-1.36487023905119E-8));
#297=CARTESIAN_POINT('',(329.5,-10.0000000329509,3.9999999863513));
#298=CARTESIAN_POINT('',(329.5,9.99999996704912,3.9999999863513));
#299=CARTESIAN_POINT('',(329.5,-10.0000000329509,3.9999999863513));
#300=CARTESIAN_POINT('',(329.5,9.99999996704912,-1.36487046109579E-8));
#301=CARTESIAN_POINT('',(329.5,9.99999996704912,3.9999999863513));
#302=CARTESIAN_POINT('',(329.5,-10.0000000329509,-1.36487023905119E-8));
#303=CARTESIAN_POINT('',(418.5,-10.0000000329509,-1.36487023905119E-8));
#304=CARTESIAN_POINT('',(418.5,-10.0000000329509,-1.36487023905119E-8));
#305=CARTESIAN_POINT('',(418.5,-10.0000000329509,3.9999999863513));
#306=CARTESIAN_POINT('',(329.5,-10.0000000329509,3.9999999863513));
#307=CARTESIAN_POINT('',(418.5,-10.0000000329509,3.9999999863513));
#308=CARTESIAN_POINT('',(418.5,-10.0000000329509,-1.36487023905119E-8));
#309=CARTESIAN_POINT('',(418.5,9.99999996704912,-1.36487046109579E-8));
#310=CARTESIAN_POINT('',(418.5,9.99999996704912,-1.36487046109579E-8));
#311=CARTESIAN_POINT('',(418.5,9.99999996704912,3.9999999863513));
#312=CARTESIAN_POINT('',(418.5,-10.0000000329509,3.9999999863513));
#313=CARTESIAN_POINT('',(418.5,9.99999996704912,3.9999999863513));
#314=CARTESIAN_POINT('',(418.5,9.99999996704912,-1.36487046109579E-8));
#315=CARTESIAN_POINT('',(329.5,9.99999996704912,-1.36487046109579E-8));
#316=CARTESIAN_POINT('',(418.5,9.99999996704912,3.9999999863513));
#317=CARTESIAN_POINT('',(329.5,9.99999996704912,3.9999999863513));
#318=CARTESIAN_POINT('',(331.5,-0.618718466489112,1.38128155281307));
#319=CARTESIAN_POINT('',(331.5,-1.23743690002734,1.9999999863513));
#320=CARTESIAN_POINT('',(331.5,-0.618718466489112,2.61871841988953));
#321=CARTESIAN_POINT('',(331.5,-3.29508832382849E-8,3.23743685342776));
#322=CARTESIAN_POINT('',(331.5,0.618718400587346,2.61871841988953));
#323=CARTESIAN_POINT('',(331.5,-0.618718466489112,1.38128155281307));
#324=CARTESIAN_POINT('',(329.5,-0.618718466489111,1.38128155281307));
#325=CARTESIAN_POINT('',(329.5,-0.618718466489112,1.38128155281307));
#326=CARTESIAN_POINT('',(329.5,-3.29508822962294E-8,0.762563119274839));
#327=CARTESIAN_POINT('',(329.5,0.618718400587347,1.38128155281307));
#328=CARTESIAN_POINT('',(329.5,1.23743683412558,1.9999999863513));
#329=CARTESIAN_POINT('',(329.5,0.618718400587346,2.61871841988953));
#330=CARTESIAN_POINT('',(416.5,-0.618718466489112,1.38128155281307));
#331=CARTESIAN_POINT('',(416.5,-1.23743690002734,1.9999999863513));
#332=CARTESIAN_POINT('',(416.5,-0.618718466489112,2.61871841988953));
#333=CARTESIAN_POINT('',(416.5,-3.29508832382849E-8,3.23743685342776));
#334=CARTESIAN_POINT('',(416.5,0.618718400587346,2.61871841988953));
#335=CARTESIAN_POINT('',(418.5,-0.618718466489112,1.38128155281307));
#336=CARTESIAN_POINT('',(418.5,-1.23743690002734,1.9999999863513));
#337=CARTESIAN_POINT('',(418.5,-0.618718466489112,2.61871841988953));
#338=CARTESIAN_POINT('',(418.5,-3.29508832382849E-8,3.23743685342776));
#339=CARTESIAN_POINT('',(418.5,0.618718400587346,2.61871841988953));
#340=CARTESIAN_POINT('',(418.5,-0.618718466489114,1.38128155281307));
#341=CARTESIAN_POINT('',(416.5,-0.618718466489112,1.38128155281307));
#342=CARTESIAN_POINT('',(331.5,0.618718400587346,2.61871841988953));
#343=CARTESIAN_POINT('',(329.5,0.618718400587346,2.61871841988953));
#344=CARTESIAN_POINT('',(331.5,0.618718400587346,2.61871841988953));
#345=CARTESIAN_POINT('',(331.5,1.23743683412558,1.9999999863513));
#346=CARTESIAN_POINT('',(331.5,0.618718400587347,1.38128155281307));
#347=CARTESIAN_POINT('',(331.5,-3.29508822962294E-8,0.762563119274839));
#348=CARTESIAN_POINT('',(331.5,-0.618718466489112,1.38128155281307));
#349=CARTESIAN_POINT('',(329.5,0.618718400587346,2.61871841988953));
#350=CARTESIAN_POINT('',(329.5,-3.29508832382849E-8,3.23743685342776));
#351=CARTESIAN_POINT('',(329.5,-0.618718466489112,2.61871841988953));
#352=CARTESIAN_POINT('',(329.5,-1.23743690002734,1.9999999863513));
#353=CARTESIAN_POINT('',(329.5,-0.618718466489112,1.38128155281307));
#354=CARTESIAN_POINT('',(418.5,0.618718400587346,2.61871841988953));
#355=CARTESIAN_POINT('',(416.5,0.618718400587346,2.61871841988953));
#356=CARTESIAN_POINT('',(416.5,0.618718400587346,2.61871841988953));
#357=CARTESIAN_POINT('',(416.5,1.23743683412558,1.9999999863513));
#358=CARTESIAN_POINT('',(416.5,0.618718400587347,1.38128155281307));
#359=CARTESIAN_POINT('',(416.5,-3.29508822962294E-8,0.762563119274839));
#360=CARTESIAN_POINT('',(416.5,-0.618718466489112,1.38128155281307));
#361=CARTESIAN_POINT('',(418.5,0.618718400587346,2.61871841988953));
#362=CARTESIAN_POINT('',(418.5,1.23743683412558,1.9999999863513));
#363=CARTESIAN_POINT('',(418.5,0.618718400587347,1.38128155281307));
#364=CARTESIAN_POINT('',(418.5,-3.29508822962294E-8,0.762563119274839));
#365=CARTESIAN_POINT('',(418.5,-0.618718466489112,1.38128155281307));
#366=CARTESIAN_POINT('',(0.,0.,0.));
ENDSEC;
END-ISO-10303-21;
