%!PS-Adobe-3.0 EPSF-3.0
%%Creator: cairo 1.17.4 (https://cairographics.org)
%%CreationDate: Mon Jul 25 00:12:44 2022
%%Pages: 1
%%DocumentData: Clean7Bit
%%LanguageLevel: 2
%%BoundingBox: 0 0 400 471
%%EndComments
%%BeginProlog
50 dict begin
/q { gsave } bind def
/Q { grestore } bind def
/cm { 6 array astore concat } bind def
/w { setlinewidth } bind def
/J { setlinecap } bind def
/j { setlinejoin } bind def
/M { setmiterlimit } bind def
/d { setdash } bind def
/m { moveto } bind def
/l { lineto } bind def
/c { curveto } bind def
/h { closepath } bind def
/re { exch dup neg 3 1 roll 5 3 roll moveto 0 rlineto
      0 exch rlineto 0 rlineto closepath } bind def
/S { stroke } bind def
/f { fill } bind def
/f* { eofill } bind def
/n { newpath } bind def
/W { clip } bind def
/W* { eoclip } bind def
/BT { } bind def
/ET { } bind def
/BDC { mark 3 1 roll /BDC pdfmark } bind def
/EMC { mark /EMC pdfmark } bind def
/cairo_store_point { /cairo_point_y exch def /cairo_point_x exch def } def
/Tj { show currentpoint cairo_store_point } bind def
/TJ {
  {
    dup
    type /stringtype eq
    { show } { -0.001 mul 0 cairo_font_matrix dtransform rmoveto } ifelse
  } forall
  currentpoint cairo_store_point
} bind def
/cairo_selectfont { cairo_font_matrix aload pop pop pop 0 0 6 array astore
    cairo_font exch selectfont cairo_point_x cairo_point_y moveto } bind def
/Tf { pop /cairo_font exch def /cairo_font_matrix where
      { pop cairo_selectfont } if } bind def
/Td { matrix translate cairo_font_matrix matrix concatmatrix dup
      /cairo_font_matrix exch def dup 4 get exch 5 get cairo_store_point
      /cairo_font where { pop cairo_selectfont } if } bind def
/Tm { 2 copy 8 2 roll 6 array astore /cairo_font_matrix exch def
      cairo_store_point /cairo_font where { pop cairo_selectfont } if } bind def
/g { setgray } bind def
/rg { setrgbcolor } bind def
/d1 { setcachedevice } bind def
/cairo_data_source {
  CairoDataIndex CairoData length lt
    { CairoData CairoDataIndex get /CairoDataIndex CairoDataIndex 1 add def }
    { () } ifelse
} def
/cairo_flush_ascii85_file { cairo_ascii85_file status { cairo_ascii85_file flushfile } if } def
/cairo_image { image cairo_flush_ascii85_file } def
/cairo_imagemask { imagemask cairo_flush_ascii85_file } def
%%EndProlog
%%BeginSetup
%%EndSetup
%%Page: 1 1
%%BeginPageSetup
%%PageBoundingBox: 0 0 400 471
%%EndPageSetup
q 0 0 400 471 rectclip
1 0 0 -1 0 471 cm q
0.427451 g
261.508 253.832 m 256.84 269.605 l 355.121 231.32 l 274.027 253.051 l 261.508
 253.832 l f
0 g
0.703138 w
1 J
1 j
[] 0.0 d
4 M q -0.267949 -1 -1 0.267949 0 0 cm
-291.468 -118.007 m -310.189 -103.541 l S Q
q -0.267949 -1 -1 0.267949 0 0 cm
-310.189 -103.541 m -301.779 -128.236 l S Q
q -0.267949 -1 -1 0.267949 0 0 cm
-301.779 -128.236 m -291.468 -118.007 l S Q
q -0.267949 -1 -1 0.267949 0 0 cm
-310.189 -103.541 m -322.945 -116.19 l S Q
q -0.267949 -1 -1 0.267949 0 0 cm
-322.945 -116.19 m -301.779 -128.236 l S Q
q -0.267949 -1 -1 0.267949 0 0 cm
-296.183 -157.443 m -301.779 -128.236 l S Q
q -0.267949 -1 -1 0.267949 0 0 cm
-301.779 -128.236 m -309.444 -141.026 l S Q
q -0.267949 -1 -1 0.267949 0 0 cm
-309.444 -141.026 m -296.183 -157.443 l S Q
q -0.267949 -1 -1 0.267949 0 0 cm
-296.183 -157.443 m -282.454 -139.867 l S Q
q -0.267949 -1 -1 0.267949 0 0 cm
-282.454 -139.867 m -301.779 -128.236 l S Q
q -0.267949 -1 -1 0.267949 0 0 cm
-282.454 -139.867 m -291.468 -118.007 l S Q
q -0.267949 -1 -1 0.267949 0 0 cm
-264.557 -106.679 m -276.921 -89.537 l S Q
q -0.267949 -1 -1 0.267949 0 0 cm
-276.921 -89.537 m -278.896 -110.727 l S Q
q -0.267949 -1 -1 0.267949 0 0 cm
-278.896 -110.727 m -264.557 -106.679 l S Q
q -0.267949 -1 -1 0.267949 0 0 cm
-276.921 -89.537 m -294.649 -94.541 l S Q
q -0.267949 -1 -1 0.267949 0 0 cm
-294.649 -94.541 m -278.896 -110.727 l S Q
q -0.267949 -1 -1 0.267949 0 0 cm
-282.454 -139.867 m -278.896 -110.727 l S Q
q -0.267949 -1 -1 0.267949 0 0 cm
-278.896 -110.727 m -291.468 -118.007 l S Q
q -0.267949 -1 -1 0.267949 0 0 cm
-282.454 -139.867 m -261.909 -131.216 l S Q
q -0.267949 -1 -1 0.267949 0 0 cm
-261.909 -131.216 m -278.896 -110.727 l S Q
q -0.267949 -1 -1 0.267949 0 0 cm
-261.909 -131.216 m -264.557 -106.679 l S Q
q -0.267949 -1 -1 0.267949 0 0 cm
-322.945 -116.19 m -309.444 -141.026 l S Q
q -0.267949 -1 -1 0.267949 0 0 cm
-322.945 -116.19 m -332.422 -132.006 l S Q
q -0.267949 -1 -1 0.267949 0 0 cm
-332.422 -132.006 m -309.444 -141.026 l S Q
q -0.267949 -1 -1 0.267949 0 0 cm
-294.649 -94.541 m -291.468 -118.007 l S Q
q -0.267949 -1 -1 0.267949 0 0 cm
-294.649 -94.541 m -310.189 -103.541 l S Q
q -0.267949 -1 -1 0.267949 0 0 cm
-249.405 -150.168 m -237.677 -132.815 l S Q
q -0.267949 -1 -1 0.267949 0 0 cm
-237.677 -132.815 m -270.529 -148.778 l S Q
q -0.267949 -1 -1 0.267949 0 0 cm
-270.529 -148.778 m -249.405 -150.168 l S Q
q -0.267949 -1 -1 0.267949 0 0 cm
-237.677 -132.815 m -261.909 -131.216 l S Q
q -0.267949 -1 -1 0.267949 0 0 cm
-261.909 -131.216 m -270.529 -148.778 l S Q
q -0.267949 -1 -1 0.267949 0 0 cm
-300.405 -171.64 m -296.183 -157.443 l S Q
q -0.267949 -1 -1 0.267949 0 0 cm
-304.606 -192.408 m -300.405 -171.64 l S Q
q -0.267949 -1 -1 0.267949 0 0 cm
-261.909 -131.216 m -288.439 -156.315 l S Q
q -0.267949 -1 -1 0.267949 0 0 cm
-288.439 -156.315 m -270.529 -148.778 l S Q
q -0.267949 -1 -1 0.267949 0 0 cm
-282.454 -139.867 m -288.439 -156.315 l S Q
q -0.267949 -1 -1 0.267949 0 0 cm
-282.454 -139.867 m -300.405 -171.64 l S Q
q -0.267949 -1 -1 0.267949 0 0 cm
-300.405 -171.64 m -288.439 -156.315 l S Q
q -0.267949 -1 -1 0.267949 0 0 cm
-360.077 -177.311 m -338.257 -150.372 l S Q
q -0.267949 -1 -1 0.267949 0 0 cm
-338.257 -150.372 m -357.952 -155.489 l S Q
q -0.267949 -1 -1 0.267949 0 0 cm
-357.952 -155.489 m -360.077 -177.311 l S Q
q -0.267949 -1 -1 0.267949 0 0 cm
-360.077 -177.311 m -340.226 -170.594 l S Q
q -0.267949 -1 -1 0.267949 0 0 cm
-340.226 -170.594 m -338.257 -150.372 l S Q
q -0.267949 -1 -1 0.267949 0 0 cm
-315.755 -172.233 m -338.257 -150.372 l S Q
q -0.267949 -1 -1 0.267949 0 0 cm
-340.226 -170.594 m -315.755 -172.233 l S Q
q -0.267949 -1 -1 0.267949 0 0 cm
-315.755 -172.233 m -309.444 -141.026 l S Q
q -0.267949 -1 -1 0.267949 0 0 cm
-309.444 -141.026 m -338.257 -150.372 l S Q
q -0.267949 -1 -1 0.267949 0 0 cm
-332.422 -132.006 m -338.257 -150.372 l S Q
q -0.267949 -1 -1 0.267949 0 0 cm
-315.755 -172.233 m -296.183 -157.443 l S Q
q -0.267949 -1 -1 0.267949 0 0 cm
-315.755 -172.233 m -302.205 -180.532 l S Q
q -0.267949 -1 -1 0.267949 0 0 cm
-249.404 -92.622 m -270.994 -88.95 l S Q
q -0.267949 -1 -1 0.267949 0 0 cm
-270.994 -88.95 m -276.921 -89.537 l S Q
q -0.267949 -1 -1 0.267949 0 0 cm
-276.921 -89.537 m -269.422 -89.219 l S Q
q -0.267949 -1 -1 0.267949 0 0 cm
-270.994 -88.95 m -291.758 -89.832 l S Q
q -0.267949 -1 -1 0.267949 0 0 cm
-291.758 -89.832 m -276.921 -89.537 l S Q
q -0.267949 -1 -1 0.267949 0 0 cm
-291.758 -89.832 m -294.649 -94.541 l S Q
q -0.267949 -1 -1 0.267949 0 0 cm
-291.758 -89.832 m -310.893 -95.235 l S Q
q -0.267949 -1 -1 0.267949 0 0 cm
-310.893 -95.235 m -294.649 -94.541 l S Q
q -0.267949 -1 -1 0.267949 0 0 cm
-310.893 -95.235 m -310.189 -103.541 l S Q
q -0.267949 -1 -1 0.267949 0 0 cm
-310.893 -95.235 m -327.664 -104.949 l S Q
q -0.267949 -1 -1 0.267949 0 0 cm
-327.664 -104.949 m -310.189 -103.541 l S Q
q -0.267949 -1 -1 0.267949 0 0 cm
-327.664 -104.949 m -322.945 -116.19 l S Q
q -0.267949 -1 -1 0.267949 0 0 cm
-327.664 -104.949 m -341.426 -118.597 l S Q
q -0.267949 -1 -1 0.267949 0 0 cm
-341.426 -118.597 m -322.945 -116.19 l S Q
q -0.267949 -1 -1 0.267949 0 0 cm
-341.426 -118.597 m -332.422 -132.006 l S Q
q -0.267949 -1 -1 0.267949 0 0 cm
-341.426 -118.597 m -351.652 -135.666 l S Q
q -0.267949 -1 -1 0.267949 0 0 cm
-351.652 -135.666 m -332.422 -132.006 l S Q
q -0.267949 -1 -1 0.267949 0 0 cm
-351.652 -135.666 m -338.257 -150.372 l S Q
q -0.267949 -1 -1 0.267949 0 0 cm
-351.652 -135.666 m -357.952 -155.489 l S Q
q -0.267949 -1 -1 0.267949 0 0 cm
-237.677 -132.815 m -232.82 -108.768 l S Q
q -0.267949 -1 -1 0.267949 0 0 cm
-232.82 -108.768 m -261.909 -131.216 l S Q
q -0.267949 -1 -1 0.267949 0 0 cm
-232.82 -108.768 m -264.557 -106.679 l S Q
q -0.267949 -1 -1 0.267949 0 0 cm
-264.557 -106.679 m -258.58 -91.061 l S Q
q -0.267949 -1 -1 0.267949 0 0 cm
-232.82 -108.768 m -253.764 -91.879 l S Q
q -0.267949 -1 -1 0.267949 0 0 cm
-232.82 -108.768 m -236.505 -96.133 l S Q
q -0.267949 -1 -1 0.267949 0 0 cm
-249.405 -150.168 m -165.928 -355.122 l S Q
q -0.267949 -1 -1 0.267949 0 0 cm
-165.928 -355.122 m -165.928 -172.891 l S Q
q -0.267949 -1 -1 0.267949 0 0 cm
-165.928 -172.891 m -249.405 -150.168 l S Q
q -0.267949 -1 -1 0.267949 0 0 cm
-249.405 -150.168 m -300.405 -171.64 l S Q
q -0.267949 -1 -1 0.267949 0 0 cm
-300.405 -171.64 m -165.928 -355.122 l S Q
q -0.267949 -1 -1 0.267949 0 0 cm
-288.439 -156.315 m -249.405 -150.168 l S Q
q -0.267949 -1 -1 0.267949 0 0 cm
-304.606 -192.408 m -165.928 -355.122 l S Q
q -0.267949 -1 -1 0.267949 0 0 cm
-304.606 -192.408 m -304.606 -317.373 l S Q
q -0.267949 -1 -1 0.267949 0 0 cm
-304.606 -317.373 m -165.928 -355.122 l S Q
q -0.267949 -1 -1 0.267949 0 0 cm
-360.077 -177.311 m -360.079 -302.271 l S Q
q -0.267949 -1 -1 0.267949 0 0 cm
-360.079 -302.271 m -340.226 -170.594 l S Q
q -0.267949 -1 -1 0.267949 0 0 cm
-360.079 -302.271 m -340.225 -295.556 l S Q
q -0.267949 -1 -1 0.267949 0 0 cm
-340.225 -295.556 m -340.226 -170.594 l S Q
q -0.267949 -1 -1 0.267949 0 0 cm
-315.755 -172.233 m -315.758 -297.194 l S Q
q -0.267949 -1 -1 0.267949 0 0 cm
-315.758 -297.194 m -304.608 -304.025 l S Q
q -0.267949 -1 -1 0.267949 0 0 cm
-304.605 -273.502 m -315.755 -172.233 l S Q
q -0.267949 -1 -1 0.267949 0 0 cm
-340.225 -295.556 m -315.758 -297.194 l S Q
q -0.267949 -1 -1 0.267949 0 0 cm
-315.758 -297.194 m -340.226 -170.594 l S Q
q -0.267949 -1 -1 0.267949 0 0 cm
-360.077 -177.311 m -461.775 -274.588 l S Q
q -0.267949 -1 -1 0.267949 0 0 cm
-461.775 -274.588 m -360.079 -302.271 l S Q
q -0.267949 -1 -1 0.267949 0 0 cm
-357.952 -155.489 m -461.775 -274.588 l S Q
q -0.267949 -1 -1 0.267949 0 0 cm
-357.952 -155.489 m -461.776 32.326 l S Q
q -0.267949 -1 -1 0.267949 0 0 cm
-461.776 32.326 m -461.775 -274.588 l S Q
q -0.267949 -1 -1 0.267949 0 0 cm
-351.652 -135.666 m -461.776 32.326 l S Q
q -0.267949 -1 -1 0.267949 0 0 cm
-341.426 -118.597 m -461.776 32.326 l S Q
q -0.267949 -1 -1 0.267949 0 0 cm
-327.664 -104.949 m -461.776 32.326 l S Q
q -0.267949 -1 -1 0.267949 0 0 cm
-310.893 -95.235 m -461.776 32.326 l S Q
q -0.267949 -1 -1 0.267949 0 0 cm
-291.758 -89.832 m -461.776 32.326 l S Q
q -0.267949 -1 -1 0.267949 0 0 cm
-270.994 -88.95 m -461.776 32.326 l S Q
q -0.267949 -1 -1 0.267949 0 0 cm
-270.994 -88.95 m -165.929 -48.207 l S Q
q -0.267949 -1 -1 0.267949 0 0 cm
-165.929 -48.207 m -461.776 32.326 l S Q
q -0.267949 -1 -1 0.267949 0 0 cm
-249.404 -92.622 m -165.929 -48.207 l S Q
q -0.267949 -1 -1 0.267949 0 0 cm
-249.404 -92.622 m -165.931 -115.348 l S Q
q -0.267949 -1 -1 0.267949 0 0 cm
-165.931 -115.348 m -165.929 -48.207 l S Q
q -0.267949 -1 -1 0.267949 0 0 cm
-165.928 -172.891 m -237.677 -132.815 l S Q
q -0.267949 -1 -1 0.267949 0 0 cm
-165.928 -172.891 m -154.2 -155.538 l S Q
q -0.267949 -1 -1 0.267949 0 0 cm
-154.2 -155.538 m -237.677 -132.815 l S Q
q -0.267949 -1 -1 0.267949 0 0 cm
-154.202 -114.846 m -165.931 -115.348 l S Q
q -0.267949 -1 -1 0.267949 0 0 cm
-237.677 -132.815 m -149.342 -131.492 l S Q
q -0.267949 -1 -1 0.267949 0 0 cm
-149.342 -131.492 m -232.82 -108.768 l S Q
q -0.267949 -1 -1 0.267949 0 0 cm
-154.2 -155.538 m -149.342 -131.492 l S Q
q -0.267949 -1 -1 0.267949 0 0 cm
-232.82 -108.768 m -173.146 -113.383 l S Q
q -0.267949 -1 -1 0.267949 0 0 cm
-149.342 -131.492 m -154.202 -114.846 l S Q
q -0.267949 -1 -1 0.267949 0 0 cm
-165.928 -355.122 m -154.2 -155.538 l S Q
q -0.267949 -1 -1 0.267949 0 0 cm
-165.928 -355.122 m -77.475 -287.784 l S Q
q -0.267949 -1 -1 0.267949 0 0 cm
-77.475 -287.784 m -154.2 -155.538 l S Q
q -0.267949 -1 -1 0.267949 0 0 cm
-77.475 -287.784 m -149.342 -131.492 l S Q
q -0.267949 -1 -1 0.267949 0 0 cm
-77.475 -287.784 m -77.476 19.131 l S Q
q -0.267949 -1 -1 0.267949 0 0 cm
-77.476 19.131 m -149.342 -131.492 l S Q
q -0.267949 -1 -1 0.267949 0 0 cm
-77.476 19.131 m -154.202 -114.846 l S Q
q -0.267949 -1 -1 0.267949 0 0 cm
-165.929 -48.207 m -154.202 -114.846 l S Q
q -0.267949 -1 -1 0.267949 0 0 cm
-77.476 19.131 m -165.929 -48.207 l S Q
q -0.267949 -1 -1 0.267949 0 0 cm
-461.776 32.326 m -373.321 99.668 l S Q
q -0.267949 -1 -1 0.267949 0 0 cm
-77.476 19.131 m -461.776 32.326 l S Q
q -0.267949 -1 -1 0.267949 0 0 cm
-77.476 19.131 m -373.321 99.668 l S Q
0.470588 g
256.84 269.605 m 381.801 236.125 l 385.645 223.145 l 355.121 231.32 l 256.84
 269.605 l f
0 g
0.75 w
0 J
0 j
q 1 0 0 1 0 0 cm
256.84 269.605 m 381.801 236.125 l 385.645 223.145 l 355.121 231.32 l 256.84
 269.605 l S Q
0.447059 g
261.758 294.516 m 381.801 236.125 l 256.84 269.605 l h
261.758 294.516 m f
0 g
q 1 0 0 1 0 0 cm
261.758 294.516 m 381.801 236.125 l 256.84 269.605 l h
261.758 294.516 m S Q
0.486275 g
386.719 261.031 m 381.801 236.125 l 261.758 294.516 l 386.719 261.031 l
 f
0 g
q 1 0 0 1 0 0 cm
386.719 261.031 m 381.801 236.125 l 261.758 294.516 l 386.719 261.031 l
 S Q
0.513726 g
261.758 294.516 m 398.754 279.086 l 386.719 261.031 l h
261.758 294.516 m f
0 g
q 1 0 0 1 0 0 cm
261.758 294.516 m 398.754 279.086 l 386.719 261.031 l h
261.758 294.516 m S Q
0.486275 g
261.758 294.516 m 273.793 312.566 l 398.754 279.086 l 261.758 294.516 l
 f
0 g
q 1 0 0 1 0 0 cm
261.758 294.516 m 273.793 312.566 l 398.754 279.086 l 261.758 294.516 l
 S Q
0.376471 g
256.84 269.605 m 261.508 253.832 l 252.133 254.414 l 236.805 253.996 l 
256.84 269.605 l f
0 g
q 1 0 0 1 0 0 cm
256.84 269.605 m 261.508 253.832 l 252.133 254.414 l 236.805 253.996 l 
256.84 269.605 l S Q
0.376471 g
241.008 297.965 m 256.84 269.605 l 261.758 294.516 l 241.008 297.965 l f
0 g
q 1 0 0 1 0 0 cm
241.008 297.965 m 256.84 269.605 l 261.758 294.516 l 241.008 297.965 l S Q
0.45098 g
241.008 297.965 m 273.793 312.566 l 261.758 294.516 l 241.008 297.965 l
 f
0 g
q 1 0 0 1 0 0 cm
241.008 297.965 m 273.793 312.566 l 261.758 294.516 l 241.008 297.965 l
 S Q
0.376471 g
241.008 297.965 m 256.84 269.605 l 223.941 271.656 l 241.008 297.965 l f
0 g
q 1 0 0 1 0 0 cm
241.008 297.965 m 256.84 269.605 l 223.941 271.656 l 241.008 297.965 l S Q
0.376471 g
223.941 271.656 m 236.805 253.996 l 256.84 269.605 l 223.941 271.656 l f
0 g
q 1 0 0 1 0 0 cm
223.941 271.656 m 236.805 253.996 l 256.84 269.605 l 223.941 271.656 l S Q
0.443137 g
241.008 297.965 m 251.402 316.289 l 273.793 312.566 l 241.008 297.965 l
 f
0 g
q 1 0 0 1 0 0 cm
241.008 297.965 m 251.402 316.289 l 273.793 312.566 l 241.008 297.965 l
 S Q
0.403922 g
223.941 271.656 m 221.078 297.051 l 241.008 297.965 l 223.941 271.656 l
 f
0 g
q 1 0 0 1 0 0 cm
223.941 271.656 m 221.078 297.051 l 241.008 297.965 l 223.941 271.656 l
 S Q
0.443137 g
221.078 297.051 m 229.891 315.301 l 241.008 297.965 l 221.078 297.051 l
 f
0 g
q 1 0 0 1 0 0 cm
221.078 297.051 m 229.891 315.301 l 241.008 297.965 l 221.078 297.051 l
 S Q
0.443137 g
229.891 315.301 m 251.402 316.289 l 241.008 297.965 l 229.891 315.301 l
 f
0 g
q 1 0 0 1 0 0 cm
229.891 315.301 m 251.402 316.289 l 241.008 297.965 l 229.891 315.301 l
 S Q
0.364706 g
252.133 254.414 m 215.551 244.977 l 236.805 253.996 l 252.133 254.414 l
 f
0 g
q 1 0 0 1 0 0 cm
252.133 254.414 m 215.551 244.977 l 236.805 253.996 l 252.133 254.414 l
 S Q
0.32549 g
215.551 244.977 m 233.602 246.555 l 252.133 254.414 l 215.551 244.977 l
 f
0 g
q 1 0 0 1 0 0 cm
215.551 244.977 m 233.602 246.555 l 252.133 254.414 l 215.551 244.977 l
 S Q
0.443137 g
215.551 244.977 m 209.098 267.418 l 236.805 253.996 l h
215.551 244.977 m f
0 g
q 1 0 0 1 0 0 cm
215.551 244.977 m 209.098 267.418 l 236.805 253.996 l h
215.551 244.977 m S Q
0.443137 g
209.098 267.418 m 223.941 271.656 l 236.805 253.996 l 209.098 267.418 l
 f
0 g
q 1 0 0 1 0 0 cm
209.098 267.418 m 223.941 271.656 l 236.805 253.996 l 209.098 267.418 l
 S Q
0.443137 g
209.098 267.418 m 202.723 291.812 l 223.941 271.656 l 209.098 267.418 l
 f
0 g
q 1 0 0 1 0 0 cm
209.098 267.418 m 202.723 291.813 l 223.941 271.656 l 209.098 267.418 l
 S Q
0.443137 g
202.723 291.812 m 221.078 297.051 l 223.941 271.656 l 202.723 291.812 l
 f
0 g
q 1 0 0 1 0 0 cm
202.723 291.813 m 221.078 297.051 l 223.941 271.656 l 202.723 291.813 l
 S Q
0.443137 g
221.078 297.051 m 210.082 309.648 l 210.082 309.648 229.891 315.301 229.891
 315.301 c 221.078 297.051 l f
0 g
q 1 0 0 1 0 0 cm
221.078 297.051 m 210.082 309.648 l 210.082 309.648 229.891 315.301 229.891
 315.301 c 221.078 297.051 l S Q
0.443137 g
202.723 291.812 m 210.082 309.648 l 221.078 297.051 l h
202.723 291.812 m f
0 g
q 1 0 0 1 0 0 cm
202.723 291.813 m 210.082 309.648 l 221.078 297.051 l h
202.723 291.813 m S Q
0.443137 g
192.746 299.543 m 202.723 291.812 l 210.082 309.648 l 192.746 299.543 l
 f
0 g
q 1 0 0 1 0 0 cm
192.746 299.543 m 202.723 291.813 l 210.082 309.648 l 192.746 299.543 l
 S Q
1 g
2.168248 w
q 1 0 0 1 0 0 cm
288.648 303.82 m 288.648 293.195 l S Q
288.648 290.691 m 290.816 294.441 l 286.48 294.441 l h
288.648 290.691 m f*
0.578199 w
q 0 -1 1 0 0 0 cm
-290.691 288.648 m -294.441 290.816 l -294.441 286.48 l h
-290.691 288.648 m S Q
2.168248 w
q 1 0 0 1 0 0 cm
345.637 279.332 m 345.637 268.703 l S Q
345.637 266.203 m 347.805 269.953 l 343.469 269.953 l h
345.637 266.203 m f*
0.578199 w
q 0 -1 1 0 0 0 cm
-266.203 345.637 m -269.953 347.805 l -269.953 343.469 l h
-266.203 345.637 m S Q
2.168248 w
q 1 0 0 1 0 0 cm
334.066 268.02 m 334.066 257.391 l S Q
334.066 254.891 m 336.234 258.641 l 331.898 258.641 l h
334.066 254.891 m f*
0.578199 w
q 0 -1 1 0 0 0 cm
-254.891 334.066 m -258.641 336.234 l -258.641 331.898 l h
-254.891 334.066 m S Q
2.168248 w
q 1 0 0 1 0 0 cm
290.359 271.102 m 290.359 260.477 l S Q
290.359 257.977 m 292.527 261.727 l 288.188 261.727 l h
290.359 257.977 m f*
0.578199 w
q 0 -1 1 0 0 0 cm
-257.977 290.359 m -261.727 292.527 l -261.727 288.188 l h
-257.977 290.359 m S Q
2.168248 w
q 1 0 0 1 0 0 cm
253.977 287.945 m 253.977 277.316 l S Q
253.977 274.816 m 256.145 278.566 l 251.809 278.566 l h
253.977 274.816 m f*
0.578199 w
q 0 -1 1 0 0 0 cm
-274.816 253.977 m -278.566 256.145 l -278.566 251.809 l h
-274.816 253.977 m S Q
2.168248 w
q 1 0 0 1 0 0 cm
239.063 281.902 m 239.063 271.277 l S Q
239.062 268.773 m 241.23 272.523 l 236.895 272.523 l h
239.062 268.773 m f*
0.578199 w
q 0 -1 1 0 0 0 cm
-268.773 239.062 m -272.523 241.23 l -272.523 236.895 l h
-268.773 239.062 m S Q
2.168248 w
q 1 0 0 1 0 0 cm
239.836 265.188 m 239.836 254.563 l S Q
239.836 252.062 m 242.004 255.812 l 237.668 255.812 l h
239.836 252.062 m f*
0.578199 w
q 0 -1 1 0 0 0 cm
-252.062 239.836 m -255.812 242.004 l -255.812 237.668 l h
-252.062 239.836 m S Q
2.168248 w
q 1 0 0 1 0 0 cm
224.535 265.574 m 224.535 254.949 l S Q
224.535 252.445 m 226.703 256.199 l 222.367 256.199 l h
224.535 252.445 m f*
0.578199 w
q 0 -1 1 0 0 0 cm
-252.445 224.535 m -256.199 226.703 l -256.199 222.367 l h
-252.445 224.535 m S Q
2.168248 w
q 1 0 0 1 0 0 cm
213.223 277.789 m 213.223 267.164 l S Q
213.223 264.66 m 215.391 268.41 l 211.055 268.41 l h
213.223 264.66 m f*
0.578199 w
q 0 -1 1 0 0 0 cm
-264.66 213.223 m -268.41 215.391 l -268.41 211.055 l h
-264.66 213.223 m S Q
2.168248 w
q 1 0 0 1 0 0 cm
217.852 287.172 m 217.852 276.547 l S Q
217.852 274.043 m 220.02 277.797 l 215.684 277.797 l h
217.852 274.043 m f*
0.578199 w
q 0 -1 1 0 0 0 cm
-274.043 217.852 m -277.797 220.02 l -277.797 215.684 l h
-274.043 217.852 m S Q
2.168248 w
q 1 0 0 1 0 0 cm
228.395 293.086 m 228.395 282.461 l S Q
228.395 279.957 m 230.562 283.711 l 226.223 283.711 l h
228.395 279.957 m f*
0.578199 w
q 0 -1 1 0 0 0 cm
-279.957 228.395 m -283.711 230.562 l -283.711 226.223 l h
-279.957 228.395 m S Q
2.168248 w
q 1 0 0 1 0 0 cm
210.008 301.957 m 210.008 291.332 l S Q
210.008 288.828 m 212.176 292.578 l 207.84 292.578 l h
210.008 288.828 m f*
0.578199 w
q 0 -1 1 0 0 0 cm
-288.828 210.008 m -292.578 212.176 l -292.578 207.84 l h
-288.828 210.008 m S Q
2.168248 w
q 1 0 0 1 0 0 cm
221.078 307.676 m 221.078 297.051 l S Q
221.078 294.547 m 223.246 298.301 l 218.91 298.301 l h
221.078 294.547 m f*
0.578199 w
q 0 -1 1 0 0 0 cm
-294.547 221.078 m -298.301 223.246 l -298.301 218.91 l h
-294.547 221.078 m S Q
2.168248 w
q 1 0 0 1 0 0 cm
231.992 305.172 m 231.992 294.547 l S Q
231.992 292.043 m 234.16 295.793 l 229.824 295.793 l h
231.992 292.043 m f*
0.578199 w
q 0 -1 1 0 0 0 cm
-292.043 231.992 m -295.793 234.16 l -295.793 229.824 l h
-292.043 231.992 m S Q
2.168248 w
q 1 0 0 1 0 0 cm
239.836 311.598 m 239.836 300.973 l S Q
239.836 298.473 m 242.004 302.223 l 237.668 302.223 l h
239.836 298.473 m f*
0.578199 w
q 0 -1 1 0 0 0 cm
-298.473 239.836 m -302.223 242.004 l -302.223 237.668 l h
-298.473 239.836 m S Q
2.168248 w
q 1 0 0 1 0 0 cm
252.047 311.215 m 252.047 300.586 l S Q
252.047 298.086 m 254.215 301.836 l 249.879 301.836 l h
252.047 298.086 m f*
0.578199 w
q 0 -1 1 0 0 0 cm
-298.086 252.047 m -301.836 254.215 l -301.836 249.879 l h
-298.086 252.047 m S Q
2.168248 w
q 1 0 0 1 0 0 cm
258.73 301.699 m 258.73 291.074 l S Q
258.73 288.57 m 260.902 292.324 l 256.562 292.324 l h
258.73 288.57 m f*
0.578199 w
q 0 -1 1 0 0 0 cm
-288.57 258.73 m -292.324 260.902 l -292.324 256.562 l h
-288.57 258.73 m S Q
0 g
0.75 w
q 1 0 0 1 0 0 cm
201.395 226.75 m 215.551 244.977 l S Q
0.137255 g
233.602 246.555 m 201.395 226.75 l f
0 g
q 1 0 0 1 0 0 cm
233.602 246.555 m 201.395 226.75 l S Q
0.431373 g
201.395 226.75 m 215.551 244.977 l 233.602 246.555 l h
201.395 226.75 m f
0 g
q 1 0 0 1 0 0 cm
201.395 226.75 m 215.551 244.977 l 233.602 246.555 l h
201.395 226.75 m S Q
0.431373 g
233.602 246.555 m 221.266 230.664 l 201.395 226.75 l 233.602 246.555 l f
0 g
q 1 0 0 1 0 0 cm
233.602 246.555 m 221.266 230.664 l 201.395 226.75 l 233.602 246.555 l S Q
1 g
2.168248 w
q 1 0 0 1 0 0 cm
219.652 258.375 m 219.652 247.75 l S Q
219.652 245.246 m 221.82 249 l 217.484 249 l h
219.652 245.246 m f*
0.578199 w
q 0 -1 1 0 0 0 cm
-245.246 219.652 m -249 221.82 l -249 217.484 l h
-245.246 219.652 m S Q
2.168248 w
q 1 0 0 1 0 0 cm
217.441 243.113 m 217.441 232.488 l S Q
217.441 229.984 m 219.609 233.734 l 215.273 233.734 l h
217.441 229.984 m f*
0.578199 w
q 0 -1 1 0 0 0 cm
-229.984 217.441 m -233.734 219.609 l -233.734 215.273 l h
-229.984 217.441 m S Q
Q Q
showpage
%%Trailer
end
%%EOF
